{"name": "bordo", "value": 15, "transparency": 3.15}
{"name": "bruk", "value": 1, "transparency": 0.15}
{"name": "cos", "value": 150, "transparency": 33.15}
{"name": "troska", "value": 255, "transparency": 0.15}
{"name": "rozpacz", "value": 0, "transparency": 2.05}
{"name": "drop", "value": 100, "transparency": 0.0}
{"name": "jakis", "value": 6, "transparency": 7.35}
